{
  "cviceni": {
    "version": {
      "global": "<%= version %>",
      "content": 3
    },
    "katalog": [
      "test",
      "public"
    ],
    "language": "cs",
    "slug": "vztycovani-vlajky",
    "nazev": "Vztyčování vlajky",
    "autor": [
      "Kamil činátl"
    ],
    "klicovaSlova": [
      "druhá světová válka",
      "propaganda",
      "historický význam",
      "rudá armáda",
      "srovnání fotografií",
      "1945"
    ],
    "anotace": {
      "ucitel": "Cvičení se zaměřuje na srovnání původní a retušované verze snímku dobytí Berlína Rudou armádou v roce 1945. Žáci porovnávají obě fotografie, hledají rozdíly a zamýšlí se, proč byla fotografie upravena. Žáci si osvojují si kritický odstup od ikonického snímku a zamýšlejí se nad dopadem fotografií na sdílené představy o minulosti. Cvičení lze použít k dokreslení událostí konce druhé světové války.",
      "verejna": "Prozkoumejte jeden z ikonických snímků konce druhé světové války. S fotografií vztyčování sovětské vlajky nad Říšským sněmem v Berlíně se manipulovalo. Poznáte jak? Ovlivní malý detail na slavném snímku vaše vnímání této historické události?"
    },
    "trvani": 35,
    "funkce": [
      "lupa",
      "svg",
      "text",
      "kresleni",
      "znacky"
    ],
    "pdf": {
      "doporucenyPostup": "vztycovani-vlajky.pdf"
    },
    "uvodniObrazek": "vztycovani-vlajky/pic-01-1280w.jpg",
    "id": 35
  },
  "slajd": [
    {
      "class": "half-slide-previous",
      "zadani": {
        "hlavni": "Prohlédněte si fotografii.",
        "rozsirujici": ""
      },
      "napoveda": {
        "aktivity": [
          "lupa"
        ],
        "text": ""
      },
      "prameny": [
        "vztycovani-vlajky/pic-00-1280w.jpg"
      ],
      "popisky": [
        "Sovětští vojáci vztyčují vlajku na budově Říšského sněmu v Berlíně. <br>Foto Jevgenij Chaldej. Zdroj: ČTK"
      ]
    },
    {
      "class": [
        "half-slide-active"
      ],
      "zadani": {
        "hlavni": "Jaké pocity ve vás snímek vyvolává?",
        "rozsirujici": ""
      },
      "napoveda": {
        "aktivity": [
          "text"
        ],
        "text": "Do boxu pro text zapisujete odpověď na otázku, nebo jiný komentář (dle zadání)."
      },
      "uzivatelskyText": {
        "otazky": [
          {
            "id": "text-1",
            "zadani": "",
            "instrukce": "Myslím si, že…",
            "minDelka": 0,
            "maxDelka": 400
          }
        ]
      }
    },
    {
      "zadani": {
        "hlavni": "Popište, co na fotografii vidíte.",
        "rozsirujici": "Označte body, které jsou důležité pro pochopení fotografie, a popište je."
      },
      "napoveda": {
        "aktivity": [
          "svg"
        ],
        "text": [
          "Kliknutím na snímek levým tlačítkem myši označujete bod. Nakliknutím na bod pravým tlačítkem otevřete menu s nabídkou úkonů: změnit barvu bodu, (T) doplnit textový komentář, (X) smazat nakliknutý objekt."
        ]
      },
      "svg": {
        "soubory": [
          {
            "id": "svg-1",
            "soubor": "vztycovani-vlajky/pic-00-1280w.jpg",
            "funkce": [
              "text",
              "znacky"
            ]
          }
        ]
      },
      "popisky": [
        "Sovětští vojáci vztyčují vlajku na budově Říšského sněmu v Berlíně. Foto Jevgenij Chaldej. Zdroj: ČTK"
      ]
    },
    {
      "class": [
        "half-slide-previous"
      ],
      "zadani": {
        "hlavni": "Porovnejte publikovanou fotografii s její původní verzí.",
        "rozsirujici": "Zakreslete rozdíly, které na fotografiích nacházíte, a popište je."
      },
      "napoveda": {
        "aktivity": [
          "svg"
        ],
        "text": "Tahem myši levým tlačítkem kreslíte do obrazu. Nakliknutím na nakreslený tvar pravým tlačítkem otevřete menu s nabídkou úkonů: změnit barvu tvaru, (T) doplnit textový komentář, (X) smazat nakliknutý objekt."
      },
      "svg": {
        "soubory": [
          {
            "id": "svg-2",
            "soubor": "vztycovani-vlajky/pic-00-1024w.jpg",
            "funkce": [
              "text",
              "kresleni"
            ]
          },
          {
            "id": "svg-3",
            "soubor": "vztycovani-vlajky/pic-01-1024w.jpg",
            "funkce": [
              "text",
              "kresleni"
            ]
          }
        ]
      },
      "popisky": [
        "Sovětští vojáci vztyčují vlajku na budově Říšského sněmu v Berlíně, 30. dubna 1945. Foto Jevgenij Chaldej. Zdroj: ČTK",
        "Sovětští vojáci vztyčují vlajku na budově Říšského sněmu v Berlíně, 2. května 1945. Foto Jevgenij Chaldej. Zdroj: ČTK"
      ]
    },
    {
      "class": [
        "half-slide-active"
      ],
      "zadani": {
        "hlavni": "Přemýšlejte o historickém významu fotografie.",
        "rozsirujici": ""
      },
      "napoveda": {
        "aktivity": [
          "text"
        ],
        "text": "Do boxu pro text zapisujete odpověď na otázku, nebo jiný komentář (dle zadání)."
      },
      "uzivatelskyText": {
        "otazky": [
          {
            "id": "text-2",
            "zadani": "Jak a proč fotograf snímek upravil?",
            "instrukce": "Myslím si, že…",
            "maxDelka": 400
          },
          {
            "id": "text-3",
            "zadani": "Jak se změnilo vyznění fotografie? Proč se upravovala?",
            "instrukce": "Myslím si, že…",
            "maxDelka": 400
          }
        ]
      }
    }
  ]
}
