{
  "cviceni": {
    "version": {
      "global": "<%= version %>",
      "content": 2
    },
    "katalog": ["public"],
    "language": "cs",
    "slug": "proc-vydavali-muj-boj",
    "nazev": "Proč vydávali Můj boj?",
    "autor": ["Václav Sixta"],
    "casovaOsa": {
      "roky": [
        2000
      ],
      "epocha": {
        "ceska": ["transformace"]
      }
    },
    "klicovaSlova": [
      "Česká republika 1990- 2005",
      "média a informace",
      "nacismus",
      "historický význam",
      "Diskutujeme"
    ],
    "anotace": {
      "ucitel": "V českém jazyce vyšla kniha Adolfa Hitlera Můj boj několikrát, ovšem jen v roce 2000 vyvolalo její české vydání pětiletý soudní spor. Prostřednictvím srovnání obálek knihy a úryvků z dobového tisku se žáci zamyslí nad diskusemi, ve kterých česká společnost formulovala své postoje ve vztahu ke svobodě slova, etickým limitům svobody podnikání či neonacismu na přelomu tisíciletí.",
      "verejna": "Proč by Češi měli mít možnost přečíst si Hitlerovu knihu? V roce 2000 si tím tehdejší společnost nebyla vůbec jistá. Zamyslete se, co tehdejší spor vypovídá o české společnosti té doby."
    },
    "obtiznost": "vysoka",
    "trvani": 45,
    "funkce": ["lupa", "cteni", "text", "svg", "text-editor"],
    "pdf": {
      "doporucenyPostup": "proc-vydavali-muj-boj.pdf"
    },
    "uvodniObrazek": "proc-vydavali-muj-boj/pic-00-1024h.jpg",
    "id": 84
  },
  "slajd": [
    {
      "zadani": {
        "hlavni": "Prohlédněte si tři obálky českého vydání knihy Adolfa Hitlera.",
        "rozsirujici": ""
      },
      "napoveda": {
        "aktivity": ["lupa"],
        "text": "Při kliknutí levým tlačítkem do obrazu lupa přiblíží část obrazu ve výřezu."
      },
      "prameny": [
        "proc-vydavali-muj-boj/pic-00-1024h.jpg",
        "proc-vydavali-muj-boj/pic-01-1024h.jpg",
        "proc-vydavali-muj-boj/pic-02-1024h.jpg"
      ]
    },
    {
      "zadani": {
        "hlavni": "Čím se jednotlivá vydání od sebe liší?",
        "rozsirujici": "Označte a popište důležité body na obálkách knih."
      },
      "napoveda": {
        "aktivity": ["svg"],
        "text": "Kliknutím na snímek levým tlačítkem myši označujete bod. Nakliknutím na bod pravým tlačítkem otevřete menu s nabídkou úkonů: (T) doplnit textový komentář, (X) smazat nakliknutý objekt."
      },
      "svg": {
        "soubory": [
          {
            "id": "svg-1",
            "soubor": "proc-vydavali-muj-boj/pic-00-1024h.jpg",
            "funkce": ["text", "znacky"],
            "barvy": ["blue"]
          },
          {
            "id": "svg-2",
            "soubor": "proc-vydavali-muj-boj/pic-01-1024h.jpg",
            "funkce": ["text", "znacky"],
            "barvy": ["red"]
          },
          {
            "id": "svg-3",
            "soubor": "proc-vydavali-muj-boj/pic-02-1024h.jpg",
            "funkce": ["text", "znacky"],
            "barvy": ["orange"]
          }
        ]
      },
      "popisky": [
        "František Bauer (ed.), Adolf Hitler: Můj boj: Hitler o sobě a svých cílech, Praha 1937",
        "Jiří Hájek (ed.), Adolf Hitler: Hitlerův Mein Kampf: z bible německého nacionálního socialismu s komentářem Jiřího Hájka. Liberec 1993",
        "Adolf Hitler: Můj boj. Praha 2000"
      ]
    },
    {
      "zadani": {
        "hlavni": "Čím se jednotlivá vydání od sebe liší?",
        "rozsirujici": "Označte v článku pasáže, které obsahují důležité informace o tom, jakým způsobem byla kniha vydána."
      },
      "napoveda": {
        "aktivity": ["text-editor"],
        "text": "Levým tlačítkem myši zabarvíte zvolené slovo nebo slovní spojení. Otevře se vám nabídka, v níž zvolíte označovanou kategorii. Křížkem lze označení smazat."
      },
      "textovyEditor": {
        "galerie": [
          {
            "soubor": "proc-vydavali-muj-boj/pic-03-1024h.jpg"
          }
        ],
        "texty": [
          {
            "id": 1,
            "text": "text-00",
            "funkce": "zvyraznovani",
            "menu": [
              {
                "title": "Důležitá informace",
                "commandName": "dulezita-informace-1937",
                "classes": "text-blue",
                "command": "toggle-class",
                "commandOptions": {
                  "toggleClass": "node-selected node-text-blue",
                  "closeBtn": true,
                  "comments": false,
                  "commentsClass": "text-blue"
                }
              }
            ]
          }
        ]
      },
      "popisky": ["Naše doba, duben 1937. Zdroj: NK Praha"]
    },
    {
      "zadani": {
        "hlavni": "Čím se jednotlivá vydání od sebe liší?",
        "rozsirujici": "Označte v článku pasáže, které obsahují důležité informace o tom, jakým způsobem byla kniha vydána."
      },
      "napoveda": {
        "aktivity": ["text-editor"],
        "text": "Levým tlačítkem myši zabarvíte zvolené slovo nebo slovní spojení. Otevře se vám nabídka, v níž zvolíte označovanou kategorii. Křížkem lze označení smazat."
      },
      "textovyEditor": {
        "galerie": [
          {
            "soubor": "proc-vydavali-muj-boj/pic-04-1280w.jpg"
          }
        ],
        "texty": [
          {
            "id": 2,
            "text": "text-01",
            "funkce": "zvyraznovani",
            "menu": [
              {
                "title": "Důležitá informace",
                "commandName": "dulezita-informace-1994",
                "classes": "text-red",
                "command": "toggle-class",
                "commandOptions": {
                  "toggleClass": "node-selected node-text-red",
                  "closeBtn": true,
                  "comments": false,
                  "commentsClass": "text-red"
                }
              }
            ]
          }
        ]
      },
      "popisky": ["Český deník, 28. března 1994. Zdroj: NK Praha"]
    },
    {
      "zadani": {
        "hlavni": "Čím se jednotlivá vydání od sebe liší?",
        "rozsirujici": "Označte v článku pasáže, které obsahují důležité informace o tom, jakým způsobem byla kniha vydána."
      },
      "napoveda": {
        "aktivity": ["text-editor"],
        "text": "Levým tlačítkem myši zabarvíte zvolené slovo nebo slovní spojení. Otevře se vám nabídka, v níž zvolíte označovanou kategorii. Křížkem lze označení smazat."
      },
      "textovyEditor": {
        "galerie": [
          {
            "soubor": "proc-vydavali-muj-boj/pic-05-1024h.jpg"
          }
        ],
        "texty": [
          {
            "id": 3,
            "text": "text-02",
            "funkce": "zvyraznovani",
            "menu": [
              {
                "title": "Důležitá informace",
                "commandName": "dulezita-informace-2000",
                "classes": "text-orange",
                "command": "toggle-class",
                "commandOptions": {
                  "toggleClass": "node-selected node-text-orange",
                  "closeBtn": true,
                  "comments": false,
                  "commentsClass": "text-orange"
                }
              }
            ]
          }
        ]
      },
      "popisky": [
        "Nad Hitlerovou knihou vládnou rozpaky, 24. března 2000. Zdroj: iHNed.cz"
      ]
    },
    {
      "zadani": {
        "hlavni": "Čím se jednotlivá vydání od sebe liší?",
        "rozsirujici": "Shrňte své poznatky, které jste zjistili o vydáních Mého boje."
      },
      "napoveda": {
        "aktivity": ["text"],
        "text": "Do boxu pro text zapisujete odpověď na otázku, nebo jiný komentář (dle zadání)."
      },
      "uzivatelskyText": {
        "novaTabulka": {
          "tabulky": [
            {
              "id": "nova-tabulka-1",
              "dataFrom": ["1", "2", "3"],
              "columns": [
                {
                  "id": "pasaze",
                  "name": "",
                  "bg-color": "",
                  "values": []
                }
              ],
              "rows": [
                {
                  "id": "dulezita-informace-1937",
                  "name": "vydání z roku 1937",
                  "type": {
                    "name": "dup-text",
                    "type": "tag"
                  },
                  "bg-color": "",
                  "values": []
                },
                {
                  "id": "dulezita-informace-1994",
                  "name": "vydání z roku 1994",
                  "type": {
                    "name": "dup-text",
                    "type": "tag"
                  },
                  "bg-color": "",
                  "values": []
                },
                {
                  "id": "dulezita-informace-2000",
                  "name": "vydání z roku 2000",
                  "type": {
                    "name": "dup-text",
                    "type": "tag"
                  },
                  "bg-color": "",
                  "values": []
                }
              ]
            }
          ]
        },
        "otazky": [
          {
            "id": "text-1",
            "zadani": "vydání z roku 1937",
            "instrukce": "Myslím si, že…",
            "maxDelka": 400,
            "vyska": 4
          },
          {
            "id": "text-2",
            "zadani": "vydání z roku 1994",
            "instrukce": "Myslím si, že…",
            "maxDelka": 400,
            "vyska": 4
          },
          {
            "id": "text-3",
            "zadani": "vydání z roku 2000",
            "instrukce": "Myslím si, že…",
            "maxDelka": 400,
            "vyska": 4
          }
        ]
      }
    },
    {
      "zadani": {
        "hlavni": "V čem spočíval spor o vydání z roku 2000?",
        "rozsirujici": "Vydavatel byl za vydání knihy kritizován a bylo na něj podáno trestní oznámení. V roce 2005 byl osvobozen. Prohlédněte si další prameny k vydání knihy z roku 2000 a důležité informace si poznamenejte."
      },
      "napoveda": {
        "aktivity": ["text"],
        "text": "Do boxu pro text zapisujete odpověď na otázku, nebo jiný komentář (dle zadání)."
      },
      "uzivatelskyText": {
        "layout": "velka-galerie",
        "galerie": [
          {
            "soubor": "proc-vydavali-muj-boj/pic-06-1024h.jpg",
            "popisek": "Soud zrušil trest za vydání Mein Kampf, 10. března 2005. Zdroj: iDnes.cz"
          },
          {
            "soubor": "proc-vydavali-muj-boj/pic-07-1024h.jpg",
            "popisek": "Zlo musíme poznat, Květy, 21. dubna 2000. Zdroj: NK Praha"
          }
        ],
        "otazky": [
          {
            "id": "text-4",
            "zadani": "Nové informace:",
            "instrukce": "Chci si poznamenat…",
            "maxDelka": 400
          }
        ]
      }
    },
    {
      "class": ["half-slide-previous"],
      "zadani": {
        "hlavni": "Jak se na spor o vydání knihy díváte dnes?",
        "rozsirujici": "Pomocí zvětšování a zmenšování určete, jaké argumenty z debaty z roku 2000 jsou podle vás důležité."
      },
      "napoveda": {
        "aktivity": ["word-cloud"],
        "text": "Klikáním na znamenka -/+ zmenšujte či zdůrazňujte důležitost."
      },
      "klicovaSlova": {
        "klicovaSlova": [
          {
            "id": "klicova-slova-1",
            "funkce": "wordcloud",
            "tagy": [
              {
                "text": "Vydání použilo původní obálku s nacistickými symboly."
              },
              {
                "text": "Vydán byl celý text a bez dostatečného kritického komentáře."
              },
              {
                "text": "Česká vydání již existovala."
              },
              {
                "text": "Nakladateli šlo jen o zisk."
              },
              {
                "text": "Kniha mohla posloužit k propagaci nacismu."
              },
              {
                "text": "Hitlerova kniha je historický pramen jako každý jiný."
              },
              {
                "text": "Dnešní neonacisty Můj boj již nezajímá."
              },
              {
                "text": "Každý si může vydávat knihy, jaké chce."
              }
            ]
          }
        ]
      }
    },
    {
      "class": ["half-slide-active"],
      "zadani": {
        "hlavni": "Zodpovězte otázky.",
        "rozsirujici": ""
      },
      "napoveda": {
        "aktivity": ["text"],
        "text": "Do boxu pro text zapisujete odpověď na otázku, nebo jiný komentář (dle zadání)."
      },
      "uzivatelskyText": {
        "otazky": [
          {
            "id": "text-6",
            "zadani": "Jaké argumenty jsem zvýraznil/a a proč?",
            "instrukce": "Myslím si, že…",
            "maxDelka": 999
          },
          {
            "id": "text-7",
            "zadani": "Co spor o vydání knihy Můj boj může vypovídat o české společnosti v době kolem roku 2000?",
            "instrukce": "Myslím si, že…",
            "maxDelka": 999
          }
        ]
      }
    }
  ]
}
